…
```r
 forcats::fct_count(test_predict,sort = TRUE)
```

```
## # A tibble: 502 x 2
##    f            n
##    <fct>    <int>
##  1 lamictal    17
##  2 biaxin       5
##  3 sarafem      1
##  4 abilify      0
##  5 accolate     0
##  6 accupril     0
##  7 accutane     0
##  8 aciphex      0
##  9 actiq        0
## 10 actonel      0
## # ... with 492 more rows
```
…
```r
 forcats::fct_count(test_predict,sort = TRUE)
```

```
## # A tibble: 502 x 2
##    f            n
##    <fct>    <int>
##  1 lamictal    17
##  2 biaxin       5
##  3 sarafem      1
##  4 abilify      0
##  5 accolate     0
##  6 accupril     0
##  7 accutane     0
##  8 aciphex      0
##  9 actiq        0
## 10 actonel      0
## # ... with 492 more rows
```
…
